<svg width="24" height="24" viewBox="0 0 24 24" fill="none" xmlns="http://www.w3.org/2000/svg">
<circle cx="9.55699" cy="9.95123" r="5.75781" transform="rotate(-45 9.55699 9.95123)" stroke="#44535C" stroke-width="2"/>
<path d="M14.0727 14.5147L18.8303 19.1907" stroke="#44535C" stroke-width="2" stroke-linecap="round" stroke-linejoin="round"/>
</svg>
